78.023056, 55.305023
74.090286, 57.560547
72.540535, 54.228374
69.070412, 47.676449
60.144512, 41.477600
70.178802, 49.681789
68.794754, 51.382839
76.144485, 51.346302
69.070412, 47.676449
73.969238, 53.912453
67.947540, 45.790897
79.162888, 57.243885
66.899231, 47.370808
78.141197, 50.986710
75.964096, 57.173164
84.041901, 61.302475
76.550339, 55.611408
76.497185, 51.278469
69.370331, 51.967072
80.523064, 56.237213
73.896957, 54.620003
79.063873, 56.521713
68.819595, 50.590557
73.927444, 54.651424
77.653084, 56.793041
81.056519, 59.033913
67.818726, 52.255199
85.647865, 60.351391
66.599693, 51.771580
71.509178, 55.861591
80.205872, 53.366779
74.414345, 53.840988
89.767113, 65.208603
88.881844, 58.957336
70.790260, 56.019142
87.201118, 67.183258
89.919800, 58.049919
72.769318, 48.388344
67.489914, 51.628651
76.328423, 54.861443
78.803268, 58.059406
81.067184, 56.887924
74.641289, 51.621262
92.868980, 56.038857
83.330788, 57.189934
84.252449, 56.980530
78.404343, 53.046612
72.945694, 51.275581
68.375694, 45.666126
70.748093, 48.066723
