27.875097, 54.393368
22.741524, 54.647182
29.047581, 51.269855
26.905674, 55.991531
24.945360, 49.890453
29.524828, 58.349812
29.851994, 51.856361
32.809425, 57.691101
27.773220, 51.547092
27.617672, 56.581669
30.791624, 57.444672
28.899330, 64.248138
26.062521, 47.527798
27.061222, 50.956951
32.893070, 62.055462
29.456293, 57.659061
28.640253, 59.316444
25.116976, 48.431583
28.602470, 51.341316
26.241434, 54.012630
22.685507, 48.190144
28.062782, 56.510208
30.214153, 54.638439
28.414272, 61.438271
28.547148, 52.102177
32.082054, 60.743149
26.023264, 51.864365
29.008326, 55.606422
28.194450, 52.170010
29.828806, 59.768642
28.643112, 61.440548
26.429634, 43.915680
29.017788, 58.456329
29.281818, 56.993828
26.704779, 52.423084
31.871695, 54.324791
28.507893, 56.438744
30.833738, 55.232208
27.766615, 50.821285
31.369362, 52.935112
28.429380, 65.111877
26.523699, 51.032047
31.011446, 66.712936
29.367626, 56.264393
27.469242, 50.128262
27.196442, 55.958752
28.415478, 56.442375
28.790155, 53.458160
31.805700, 57.231640
29.469503, 59.110672
